Sentiment analysis about Game of Thrones
…
Get the tokens (individual words) in tidy format

Use tidytext::unnest_tokens() (which pulls from the
tokenizer) package, to split columns into tokens. We are
interested in words, so that’s the token we’ll use:

got_tokens <- got_df %>% 
  unnest_tokens(word, text_full)
got_tokens

## # A tibble: 297,814 × 2
##    got_text                                                                word 
##    <chr>                                                                   <chr>
##  1 "                  A GAME OF THRONES\n\n\n            Book One of A So… a    
##  2 "                  A GAME OF THRONES\n\n\n            Book One of A So… game 
##  3 "                  A GAME OF THRONES\n\n\n            Book One of A So… of   
##  4 "                  A GAME OF THRONES\n\n\n            Book One of A So… thro…
##  5 "                  A GAME OF THRONES\n\n\n            Book One of A So… book 
##  6 "                  A GAME OF THRONES\n\n\n            Book One of A So… one  
##  7 "                  A GAME OF THRONES\n\n\n            Book One of A So… of   
##  8 "                  A GAME OF THRONES\n\n\n            Book One of A So… a    
##  9 "                  A GAME OF THRONES\n\n\n            Book One of A So… song 
## 10 "                  A GAME OF THRONES\n\n\n            Book One of A So… of   
## # ℹ 297,804 more rows

Let’s count the words!

got_wc <- got_tokens %>% 
  count(word) %>% 
  arrange(-n)

got_wc

## # A tibble: 11,826 × 2
##    word      n
##    <chr> <int>
##  1 the   17988
##  2 and    8997
##  3 to     6640
##  4 a      6461
##  5 of     6200
##  6 he     5166
##  7 his    5161
##  8 was    3904
##  9 her    3659
## 10 you    3267
## # ℹ 11,816 more rows

Remove stop words:

See ?stop_words and View(stop_words)to look
at documentation for stop words lexicons.

We will remove stop words using
tidyr::anti_join():

?stop_words
view(stop_words)
stop_words

## # A tibble: 1,149 × 2
##    word        lexicon
##    <chr>       <chr>  
##  1 a           SMART  
##  2 a's         SMART  
##  3 able        SMART  
##  4 about       SMART  
##  5 above       SMART  
##  6 according   SMART  
##  7 accordingly SMART  
##  8 across      SMART  
##  9 actually    SMART  
## 10 after       SMART  
## # ℹ 1,139 more rows

got_stop <- got_tokens %>% 
  anti_join(stop_words) %>% 
  select(-got_text)

Now check the counts again:

got_swc <- got_stop %>% 
  count(word) %>% 
  arrange(-n)

got_stop 

## # A tibble: 118,281 × 1
##    word    
##    <chr>   
##  1 game    
##  2 thrones 
##  3 book    
##  4 song    
##  5 ice     
##  6 fire    
##  7 george  
##  8 r.r     
##  9 martin  
## 10 contents
## # ℹ 118,271 more rows
…
###“afinn”: Words ranked from -5 (very negative) to +5 (very
positive)

get_sentiments(lexicon = "afinn")

## # A tibble: 2,477 × 2
##    word       value
##    <chr>      <dbl>
##  1 abandon       -2
##  2 abandoned     -2
##  3 abandons      -2
##  4 abducted      -2
##  5 abduction     -2
##  6 abductions    -2
##  7 abhor         -3
##  8 abhorred      -3
##  9 abhorrent     -3
## 10 abhors        -3
## # ℹ 2,467 more rows

1

## [1] 1

afinn_pos <- get_sentiments("afinn") %>% 
  filter(value %in% c(3,4,5))

afinn_pos

## # A tibble: 222 × 2
##    word         value
##    <chr>        <dbl>
##  1 admire           3
##  2 admired          3
##  3 admires          3
##  4 admiring         3
##  5 adorable         3
##  6 adore            3
##  7 adored           3
##  8 adores           3
##  9 affection        3
## 10 affectionate     3
## # ℹ 212 more rows

bing: binary, “positive” or “negative”

get_sentiments(lexicon = "bing")

## # A tibble: 6,786 × 2
##    word        sentiment
##    <chr>       <chr>    
##  1 2-faces     negative 
##  2 abnormal    negative 
##  3 abolish     negative 
##  4 abominable  negative 
##  5 abominably  negative 
##  6 abominate   negative 
##  7 abomination negative 
##  8 abort       negative 
##  9 aborted     negative 
## 10 aborts      negative 
## # ℹ 6,776 more rows

get_sentiments(lexicon = "nrc")

## # A tibble: 13,872 × 2
##    word        sentiment
##    <chr>       <chr>    
##  1 abacus      trust    
##  2 abandon     fear     
##  3 abandon     negative 
##  4 abandon     sadness  
##  5 abandoned   anger    
##  6 abandoned   fear     
##  7 abandoned   negative 
##  8 abandoned   sadness  
##  9 abandonment anger    
## 10 abandonment fear     
## # ℹ 13,862 more rows
…
We can use the NRC lexicon to start “binning” text by the feelings
they’re typically associated with. As above, we’ll use inner_join() to
combine the got non-stopword text with the nrc lexicon:

got_nrc <- got_stop %>% 
  inner_join(get_sentiments("nrc"))

got_exclude <- got_stop %>% 
  anti_join(get_sentiments("nrc"))

# View(got_exclude)
got_exclude

## # A tibble: 90,465 × 1
##    word    
##    <chr>   
##  1 game    
##  2 thrones 
##  3 book    
##  4 song    
##  5 ice     
##  6 george  
##  7 r.r     
##  8 martin  
##  9 contents
## 10 maps    
## # ℹ 90,455 more rows
…
